{
  "AppSettings": {
    "SiteTitle": "Movies"
  },
  "Data": {
    "DefaultConnection": {
      "ConnectionString": "Server=(localdb)\\mssqllocaldb;Database=aspnet5-Movies-6f4b872d-0cca-4425-a58e-6816a53019d7;Trusted_Connection=True;MultipleActiveResultSets=true"
    }
  }
}
