{
    "webroot": "wwwroot",
    "userSecretsId": "aspnet5-Movies-6f4b872d-0cca-4425-a58e-6816a53019d7",
    "version": "1.0.0-*",

    "dependencies": {
        "EntityFramework.SqlServer": "7.0.0-beta5",
        "EntityFramework.Commands": "7.0.0-beta5",
        "Microsoft.AspNet.Mvc": "6.0.0-beta5",
        "Microsoft.AspNet.Mvc.TagHelpers": "6.0.0-beta5",
        "Microsoft.AspNet.Authentication.Cookies": "1.0.0-beta5",
        "Microsoft.AspNet.Authentication.Facebook": "1.0.0-beta5",
        "Microsoft.AspNet.Authentication.Google": "1.0.0-beta5",
        "Microsoft.AspNet.Authentication.MicrosoftAccount": "1.0.0-beta5",
        "Microsoft.AspNet.Authentication.Twitter": "1.0.0-beta5",
        "Microsoft.AspNet.Diagnostics": "1.0.0-beta5",
        "Microsoft.AspNet.Diagnostics.Entity": "7.0.0-beta5",
        "Microsoft.AspNet.Identity.EntityFramework": "3.0.0-beta5",
        "Microsoft.AspNet.Server.IIS": "1.0.0-beta5",
        "Microsoft.AspNet.Server.WebListener": "1.0.0-beta5",
        "Microsoft.AspNet.StaticFiles": "1.0.0-beta5",
        "Microsoft.AspNet.Tooling.Razor": "1.0.0-beta5",
        "Microsoft.Framework.Configuration.Abstractions": "1.0.0-beta5",
        "Microsoft.Framework.Configuration.Json": "1.0.0-beta5",
        "Microsoft.Framework.Configuration.UserSecrets": "1.0.0-beta5",
        "Microsoft.Framework.Logging": "1.0.0-beta5",
        "Microsoft.Framework.Logging.Console": "1.0.0-beta5",
        "Microsoft.VisualStudio.Web.BrowserLink.Loader": "14.0.0-beta5",
        "MySql.Data": "6.9.8",
        "Microsoft.AspNet.Session": "1.0.0-beta5",
        "Microsoft.AspNet.WebApi": "5.2.3"

    },

    "commands": {
        "web": "Microsoft.AspNet.Hosting --config hosting.ini",
        "ef": "EntityFramework.Commands"
    },

    "frameworks": {
        "dnx451": {
            "dependencies": {
                "MySql.Data.Entity": "6.9.8"

            },
            "frameworkAssemblies": {
                "System.Web": "4.0.0.0"


            }
        }

    },

    "exclude": [
        "wwwroot",
        "node_modules",
        "bower_components"
    ],
    "publishExclude": [
        "node_modules",
        "bower_components",
        "**.xproj",
        "**.user",
        "**.vspscc"
    ],
    "scripts": {
        "prepublish": [ "npm install", "bower install", "gulp clean", "gulp min" ]
    }
}
